…
Use the `blizz()` function to access all API endpoints:

``` r
library(blizz)
library(tidyverse)
library(janitor)

# Here's one example of extracting the StarCraft II grandmaster ladder
blizz("/sc2/ladder/grandmaster/1") %>% 
  .[["ladderTeams"]] %>% 
  unnest() %>% 
  as_tibble() %>% 
  clean_names("snake") %>% 
  select(display_name, clan_tag, favorite_race, wins, losses, points)
#> # A tibble: 194 x 6
#>    display_name clan_tag favorite_race  wins losses points
#>    <chr>        <chr>    <chr>         <int>  <int>  <int>
#>  1 DanielaAzu   <NA>     terran           43     10    945
#>  2 Chammy       Scyth    zerg             66     23   1714
#>  3 Astrea       PsiX     protoss          59     24   1612
#>  4 scarlett     N0SCAM   protoss          59     14   1494
#>  5 Barrow       BearMe   terran          116     11   1542
#>  6 LiquidTLO    <NA>     zerg             38     13    887
#>  7 NoWCSForU    N0SCAM   protoss         180     40   2008
#>  8 puCK         ROOT     protoss         233    134   2050
#>  9 JimRising    <NA>     zerg            295    166   1923
#> 10 Connor       <NA>     zerg             13      6    513
#> # ... with 184 more rows
```
